<?xml version="1.0" encoding="UTF-8" standalone="no"?>
<!-- Generator: Adobe Illustrator 18.0.0, SVG Export Plug-In . SVG Version: 6.00 Build 0)  -->
<svg id="Ebene_1" xmlns:rdf="http://www.w3.org/1999/02/22-rdf-syntax-ns#" xmlns="http://www.w3.org/2000/svg" enable-background="new 0 0 595.3 841.9" xml:space="preserve" viewBox="0 0 200 34" height="100%" width="100%" version="1.1" y="0px" x="0px" xmlns:cc="http://creativecommons.org/ns#" xmlns:dc="http://purl.org/dc/elements/1.1/"><metadata id="metadata44"><rdf:RDF><cc:Work rdf:about=""><dc:format>image/svg+xml</dc:format><dc:type rdf:resource="http://purl.org/dc/dcmitype/StillImage"/><dc:title/></cc:Work></rdf:RDF></metadata><g id="g3" transform="matrix(0.33596507,0,0,0.33596507,0,-122.38329)"><linearGradient id="SVGID_1_" y2="758.52" gradientUnits="userSpaceOnUse" x2="99.817" gradientTransform="matrix(0.8734,0,0,-0.8734,0,1099.6655)" y1="799.42" x1="-1.3962"><stop id="stop6" stop-color="#D83853" offset="0"/><stop id="stop8" stop-color="#B3182C" offset="1"/></linearGradient><path id="path10" fill="url(#SVGID_1_)" d="m0,464.2c30.9,1.5,31,1.5,43.1,0.9,15.2-0.8,45.6-7.1,45.6-40.3v-25.1s2-35.3-37.9-35.3c-41.5,0-50.8,22.3-50.8,48.6v51.2z"/><g id="g12" fill="#504f4f"><path id="path14" d="m111.2,384.1c3.9-0.8,11.1-1.5,18.1-1.5,9.1,0,14.8,1.2,19.3,4.3,4.2,2.5,7.1,6.9,7.1,12.8,0,6.2-3.9,11.9-11.3,14.6v0.3c7.2,1.8,13.6,7.4,13.6,16.7,0,6-2.6,10.7-6.5,14-4.8,4.2-12.8,6.3-25.2,6.3-6.8,0-12-0.5-15.2-0.9l0.1-66.6zm12.2,26.8h6.3c8.6,0,13.4-4,13.4-9.8,0-6.5-4.8-9.3-12.7-9.3-3.6,0-5.8,0.2-7.1,0.5l0.1,18.6zm0,31c1.6,0.3,3.8,0.3,6.6,0.3,7.9,0,15.1-2.9,15.1-11.4,0-7.9-6.9-11.1-15.5-11.1h-6.1l-0.1,22.2z"/><path id="path16" d="m169.1,384.1c4.7-0.9,11.5-1.5,18.7-1.5,9.8,0,16.2,1.6,20.9,5.4,3.8,3.1,5.9,7.9,5.9,13.6,0,8.7-5.9,14.7-12.4,16.9v0.3c4.9,1.8,7.9,6.6,9.4,13.1,2.2,8.5,4,16.2,5.3,18.9h-12.7c-1-2-2.7-7.5-4.5-16-2-8.8-5.2-11.6-12.1-11.9h-6.2v27.9h-12.2v-66.7zm12.2,29.8h7.3c8.3,0,13.4-4.5,13.4-11.2,0-7.3-5.2-10.8-13.2-10.8-3.9,0-6.5,0.3-7.6,0.6l0.1,21.4z"/><path id="path18" d="m238.6,383.1v67.8h-12.4v-67.8h12.4z"/><path id="path20" d="m301.3,448.8c-2.9,1.4-9.3,3.1-17.6,3.1-21.5,0-34.6-13.4-34.6-34.1,0-22.3,15.5-35.6,36.2-35.6,8.1,0,13.9,1.6,16.4,2.9l-2.6,9.9c-3.2-1.4-7.8-2.6-13.3-2.6-13.8,0-23.8,8.6-23.8,24.9,0,14.8,8.6,24.3,23.6,24.3,4.9,0,10.1-1,13.4-2.4l2.3,9.6z"/><path id="path22" d="m336.9,451.9c-19.2,0-31.3-14.7-31.3-34.5,0-20.7,13.2-35.5,32.2-35.5,19.7,0,31.4,14.9,31.4,34.2,0.1,22.8-13.7,35.7-32.3,35.8zm0.7-10c12,0,18.7-11.1,18.7-25.2,0-12.8-6.3-24.8-18.7-24.8s-18.8,11.8-18.8,25.2c0,13.5,6.8,24.8,18.8,24.8z"/><path id="path24" d="m379.9,383.1h39.2v10.1h-26.8v18.7h24.9v10h-24.9v28.8h-12.4v-67.6z"/><path id="path26" d="m431.1,383.1h12.4v57.4h27.9v10.4h-40.2l-0.1-67.8z"/><path id="path28" d="m504.5,451.9c-19.2,0-31.3-14.7-31.3-34.5,0-20.7,13.2-35.5,32.2-35.5,19.7,0,31.4,14.9,31.4,34.2,0,22.8-13.8,35.7-32.3,35.8zm0.6-10c12,0,18.7-11.1,18.7-25.2,0-12.8-6.3-24.8-18.7-24.8s-18.8,11.8-18.8,25.2c0,13.5,6.8,24.8,18.8,24.8z"/><path id="path30" d="m547.4,384.1c4.7-0.9,11.5-1.5,18.7-1.5,9.8,0,16.2,1.6,20.9,5.4,3.8,3.1,5.9,7.9,5.9,13.6,0,8.7-5.9,14.7-12.4,16.9v0.3c4.9,1.8,7.9,6.6,9.4,13.1,2.3,8.5,4.1,16.3,5.4,19h-12.7c-1-2-2.7-7.5-4.5-16-2-8.8-5.2-11.6-12.1-11.9h-6.2v27.9h-12.2l-0.2-66.8zm12.3,29.8h7.3c8.3,0,13.4-4.5,13.4-11.2,0-7.3-5.2-10.8-13.2-10.8-3.9,0-6.5,0.3-7.6,0.6l0.1,21.4z"/></g><g id="g32"><path id="path34" fill="#ffffff" d="m40.2,415.2c-0.3,0-0.4-0.2-0.7-0.4-0.3-0.3-0.3-0.6-0.3-0.9,0.1-1.2,0.2-1.7,0.2-1.7,0-1.5-0.4-2.2-1.2-2.2-1.6,0-3.9,1.7-7.2,4.9-3.2,3.3-4.9,5.9-4.9,7.7,0,0.8,0.6,1.4,1.9,1.8,0.6,0.3,2.3,0.6,4.9,1.2,2.3,0.5,4,1,5.1,1.7,1.7,1,2.5,2.4,2.5,4.2,0,2.1-1,4.1-3,5.9-1.8,1.7-3.7,2.6-5.3,2.6h-0.9c-1.1,0-2.2-0.4-3.1-1.2-1.1-1-1.7-2.1-1.7-3.5,0-0.3,0.1-0.9,0.3-1.5,0.3-0.7,0.4-1.1,0.7-1.1,0.4,0,0.7,0.3,0.7,0.9,0,0.3-0.1,0.5-0.2,0.9-0.1,0.3-0.2,0.5-0.2,0.6,0,0.8,0.3,1.5,1,2,0.6,0.4,1.4,0.7,2.2,0.7,1.7,0,3.4-0.6,5-1.9,1.7-1.4,2.6-3.1,2.6-5,0-1-0.7-1.8-2.1-2.4-0.7-0.3-2.3-0.7-4.7-1.1-1.1-0.2-2.8-0.6-5.1-1.3-1.7-0.7-2.6-1.7-2.6-3.1,0-3.3,1.8-6.7,5.4-10.2,3.4-3.3,6.3-4.9,8.8-4.9,2,0,3.1,1.6,3.1,4.6,0,0.4-0.1,1-0.3,1.7-0.3,0.6-0.6,1-0.9,1z" stroke="#ffffff"/></g><g id="g36"><path id="path38" fill="#ffffff" d="m38.2,451.8c-8.1,1.1-12.9,1.7-14.3,1.7-7.6,0-11.4-2.5-11.4-7.7,0-3.2,1.3-5.7,3.8-7.3,1.1,0,1.7,0.1,1.9,0.3,0.1,0.1,0.3,0.7,0.7,1.9-1.6,1.9-2.4,3.6-2.4,5.2,0,1.7,2.4,2.6,7.4,2.6,7.4,0,15.5-1.8,24.4-5.5,4.3-1.7,9.1-5,14.5-9.5,6.1-5.2,9.2-9.3,9.2-12.5,0-3.8-3.8-5.9-11.4-5.9-5.6,0-11.3,1-17,3.1-0.3,0.1-2.6,1.1-7,3.1-3.5,1.6-5.6,2.3-6.3,2.3-2.2,0-3.3-0.4-3.3-1.2,0-1.1,1.7-2.6,5.2-4.6,18.3-10.4,27.4-19.3,27.4-26.8,0-1.8-1-3.2-3.1-4.3-1.8-0.9-4-1.4-6.6-1.4-10.7,0-22.5,5.9-35.3,17.8-2.6,2.4-4.3,3.7-4.9,3.7-1.8,0-2.8-1-2.8-3.1,0-1.4,2.3-4,6.9-7.6,12.4-9.9,24.2-14.8,35.4-14.8,10.6,0,15.8,3.6,15.8,10.8,0,5-4.5,11.2-13.5,18.7,2.8-0.4,5.7-0.7,8.6-0.7,3.7,0,7,0.8,10.1,2.3,4,2,6.1,4.8,6.1,8.5,0,6.3-5,13-14.8,20.2-8.8,6.2-16.6,9.8-23.3,10.7zm-10.4-50.5c-3.7,7.2-5.6,17.2-5.6,30.1,0,5.5,1.9,8.7,5.7,9.9,0.6,0.6,0.9,1.1,0.9,1.7,0,1.1-0.9,1.7-2.6,1.7-2.8,0-5.1-2.2-6.8-6.5-1.4-3.4-2.1-6.6-2.1-9.7,0-4,0.9-10.1,2.5-18.4,2-9.9,4.1-14.8,6.2-14.8,1.9,0,2.9,1,2.9,3-0.1,0.7-0.4,1.8-1.1,3z" stroke="#ffffff"/></g></g></svg>
